<?xml version="1.0" encoding="utf-8"?>
<!DOCTYPE eagle SYSTEM "eagle.dtd">
<eagle version="7.3.0">
<drawing>
<settings>
<setting alwaysvectorfont="no"/>
<setting verticaltext="up"/>
</settings>
<grid distance="1" unitdist="mm" unit="mm" style="lines" multiple="1" display="yes" altdistance="0.5" altunitdist="mm" altunit="mm"/>
<layers>
<layer number="1" name="Top" color="4" fill="1" visible="yes" active="yes"/>
<layer number="16" name="Bottom" color="1" fill="1" visible="yes" active="yes"/>
<layer number="17" name="Pads" color="2" fill="1" visible="yes" active="yes"/>
<layer number="18" name="Vias" color="2" fill="1" visible="yes" active="yes"/>
<layer number="19" name="Unrouted" color="6" fill="1" visible="yes" active="yes"/>
<layer number="20" name="Dimension" color="15" fill="1" visible="yes" active="yes"/>
<layer number="21" name="tPlace" color="7" fill="1" visible="yes" active="yes"/>
<layer number="22" name="bPlace" color="7" fill="1" visible="yes" active="yes"/>
<layer number="23" name="tOrigins" color="15" fill="1" visible="yes" active="yes"/>
<layer number="24" name="bOrigins" color="15" fill="1" visible="yes" active="yes"/>
<layer number="25" name="tNames" color="7" fill="1" visible="yes" active="yes"/>
<layer number="26" name="bNames" color="7" fill="1" visible="yes" active="yes"/>
<layer number="27" name="tValues" color="7" fill="1" visible="yes" active="yes"/>
<layer number="28" name="bValues" color="7" fill="1" visible="yes" active="yes"/>
<layer number="29" name="tStop" color="7" fill="3" visible="yes" active="yes"/>
<layer number="30" name="bStop" color="7" fill="6" visible="yes" active="yes"/>
<layer number="31" name="tCream" color="7" fill="4" visible="yes" active="yes"/>
<layer number="32" name="bCream" color="7" fill="5" visible="yes" active="yes"/>
<layer number="33" name="tFinish" color="6" fill="3" visible="yes" active="yes"/>
<layer number="34" name="bFinish" color="6" fill="6" visible="yes" active="yes"/>
<layer number="35" name="tGlue" color="7" fill="4" visible="yes" active="yes"/>
<layer number="36" name="bGlue" color="7" fill="5" visible="yes" active="yes"/>
<layer number="37" name="tTest" color="7" fill="1" visible="yes" active="yes"/>
<layer number="38" name="bTest" color="7" fill="1" visible="yes" active="yes"/>
<layer number="39" name="tKeepout" color="4" fill="11" visible="yes" active="yes"/>
<layer number="40" name="bKeepout" color="1" fill="11" visible="yes" active="yes"/>
<layer number="41" name="tRestrict" color="4" fill="10" visible="yes" active="yes"/>
<layer number="42" name="bRestrict" color="1" fill="10" visible="yes" active="yes"/>
<layer number="43" name="vRestrict" color="2" fill="10" visible="yes" active="yes"/>
<layer number="44" name="Drills" color="7" fill="1" visible="yes" active="yes"/>
<layer number="45" name="Holes" color="7" fill="1" visible="yes" active="yes"/>
<layer number="46" name="Milling" color="3" fill="1" visible="yes" active="yes"/>
<layer number="47" name="Measures" color="7" fill="1" visible="yes" active="yes"/>
<layer number="48" name="Document" color="7" fill="1" visible="yes" active="yes"/>
<layer number="49" name="Reference" color="7" fill="1" visible="yes" active="yes"/>
<layer number="51" name="tDocu" color="7" fill="1" visible="yes" active="yes"/>
<layer number="52" name="bDocu" color="7" fill="1" visible="yes" active="yes"/>
<layer number="90" name="Modules" color="5" fill="1" visible="no" active="no"/>
<layer number="91" name="Nets" color="2" fill="1" visible="no" active="no"/>
<layer number="92" name="Busses" color="1" fill="1" visible="no" active="no"/>
<layer number="93" name="Pins" color="2" fill="1" visible="no" active="no"/>
<layer number="94" name="Symbols" color="4" fill="1" visible="no" active="no"/>
<layer number="95" name="Names" color="7" fill="1" visible="no" active="no"/>
<layer number="96" name="Values" color="7" fill="1" visible="no" active="no"/>
<layer number="97" name="Info" color="7" fill="1" visible="no" active="no"/>
<layer number="98" name="Guide" color="6" fill="1" visible="no" active="no"/>
<layer number="99" name="SpiceOrder" color="5" fill="1" visible="no" active="no"/>
<layer number="116" name="centerDrill" color="7" fill="1" visible="yes" active="yes"/>
</layers>
<board>
<plain>
<wire x1="0" y1="0" x2="102" y2="0" width="0" layer="20"/>
<wire x1="102" y1="0" x2="102" y2="20" width="0" layer="20"/>
<wire x1="102" y1="20" x2="0" y2="20" width="0" layer="20"/>
<wire x1="0" y1="20" x2="0" y2="0" width="0" layer="20"/>
<dimension x1="9" y1="16" x2="30" y2="16" x3="19.5" y3="25" textsize="1.778" layer="51"/>
<dimension x1="30" y1="16" x2="51" y2="16" x3="40.5" y3="25" textsize="1.778" layer="51"/>
<dimension x1="51" y1="16" x2="72" y2="16" x3="61.5" y3="25" textsize="1.778" layer="51"/>
<dimension x1="72" y1="16" x2="93" y2="16" x3="82.5" y3="25" textsize="1.778" layer="51"/>
<dimension x1="0" y1="0" x2="102" y2="0" x3="51" y3="-5" textsize="1.778" layer="51"/>
<dimension x1="102" y1="20" x2="102" y2="0" x3="107" y3="10" textsize="1.778" layer="51"/>
<circle x="66.46" y="3.5" radius="0.303" width="0.306" layer="116"/>
<circle x="71.54" y="3.5" radius="0.303" width="0.306" layer="116"/>
<circle x="82.54" y="7" radius="0.303" width="0.306" layer="116"/>
<circle x="77.46" y="7" radius="0.303" width="0.306" layer="116"/>
<circle x="17" y="7.54" radius="0.303" width="0.306" layer="116"/>
<circle x="17" y="2.46" radius="0.303" width="0.306" layer="116"/>
<circle x="53" y="2.96" radius="0.303" width="0.306" layer="116"/>
<circle x="53" y="8.04" radius="0.303" width="0.306" layer="116"/>
<circle x="97.999" y="16.002" radius="0.4" width="0.5" layer="116"/>
<circle x="92.999" y="16.002" radius="0.4" width="0.5" layer="116"/>
<circle x="87.999" y="16.002" radius="0.4" width="0.5" layer="116"/>
<circle x="35.001" y="16.001" radius="0.4" width="0.5" layer="116"/>
<circle x="30.001" y="16.001" radius="0.4" width="0.5" layer="116"/>
<circle x="25.001" y="16.001" radius="0.4" width="0.5" layer="116"/>
<circle x="56" y="15.998" radius="0.4" width="0.5" layer="116"/>
<circle x="51" y="15.998" radius="0.4" width="0.5" layer="116"/>
<circle x="46" y="15.998" radius="0.4" width="0.5" layer="116"/>
<circle x="77" y="16" radius="0.4" width="0.5" layer="116"/>
<circle x="72" y="16" radius="0.4" width="0.5" layer="116"/>
<circle x="67" y="16" radius="0.4" width="0.5" layer="116"/>
<circle x="13.995" y="15.998" radius="0.401" width="0.5" layer="116"/>
<circle x="8.996" y="15.998" radius="0.4" width="0.5" layer="116"/>
<circle x="3.996" y="15.998" radius="0.399" width="0.5" layer="116"/>
<circle x="57" y="3.23" radius="0.303" width="0.306" layer="116"/>
<circle x="57" y="5.77" radius="0.303" width="0.306" layer="116"/>
<circle x="36.27" y="4" radius="0.303" width="0.306" layer="116"/>
<circle x="33.73" y="4" radius="0.303" width="0.306" layer="116"/>
<circle x="12" y="1.73" radius="0.303" width="0.306" layer="116"/>
<circle x="12" y="4.27" radius="0.303" width="0.306" layer="116"/>
<circle x="30.42" y="8" radius="0.303" width="0.306" layer="116"/>
<circle x="40.58" y="8" radius="0.303" width="0.306" layer="116"/>
<circle x="12" y="9.27" radius="0.303" width="0.306" layer="116"/>
<circle x="12" y="6.73" radius="0.303" width="0.306" layer="116"/>
<circle x="63.92" y="8" radius="0.303" width="0.306" layer="116"/>
<circle x="74.08" y="8" radius="0.303" width="0.306" layer="116"/>
<circle x="46" y="2.96" radius="0.3" width="0.3" layer="116"/>
<circle x="48.54" y="5.5" radius="0.3" width="0.3" layer="116"/>
<circle x="46" y="8.04" radius="0.3" width="0.3" layer="116"/>
<circle x="25" y="2.96" radius="0.3" width="0.3" layer="116"/>
<circle x="27.54" y="5.5" radius="0.3" width="0.3" layer="116"/>
<circle x="25" y="8.04" radius="0.3" width="0.3" layer="116"/>
<circle x="61.12" y="5.79" radius="0.303" width="0.306" layer="116"/>
<circle x="61.12" y="8.33" radius="0.303" width="0.306" layer="116"/>
<circle x="61.12" y="3.25" radius="0.303" width="0.306" layer="116"/>
</plain>
<libraries>
<library name="resistor">
<description>&lt;b&gt;Resistors, Capacitors, Inductors&lt;/b&gt;&lt;p&gt;
Based on the previous libraries:
&lt;ul&gt;
&lt;li&gt;r.lbr
&lt;li&gt;cap.lbr 
&lt;li&gt;cap-fe.lbr
&lt;li&gt;captant.lbr
&lt;li&gt;polcap.lbr
&lt;li&gt;ipc-smd.lbr
&lt;/ul&gt;
All SMD packages are defined according to the IPC specifications and  CECC&lt;p&gt;
&lt;author&gt;Created by librarian@cadsoft.de&lt;/author&gt;&lt;p&gt;
&lt;p&gt;
for Electrolyt Capacitors see also :&lt;p&gt;
www.bccomponents.com &lt;p&gt;
www.panasonic.com&lt;p&gt;
www.kemet.com&lt;p&gt;
&lt;p&gt;
for trimmer refence see : &lt;u&gt;www.electrospec-inc.com/cross_references/trimpotcrossref.asp&lt;/u&gt;&lt;p&gt;

&lt;map name="nav_main"&gt;
&lt;area shape="rect" coords="0,1,140,23" href="../military_specs.asp" title=""&gt;
&lt;area shape="rect" coords="0,24,140,51" href="../about.asp" title=""&gt;
&lt;area shape="rect" coords="1,52,140,77" href="../rfq.asp" title=""&gt;
&lt;area shape="rect" coords="0,78,139,103" href="../products.asp" title=""&gt;
&lt;area shape="rect" coords="1,102,138,128" href="../excess_inventory.asp" title=""&gt;
&lt;area shape="rect" coords="1,129,138,150" href="../edge.asp" title=""&gt;
&lt;area shape="rect" coords="1,151,139,178" href="../industry_links.asp" title=""&gt;
&lt;area shape="rect" coords="0,179,139,201" href="../comments.asp" title=""&gt;
&lt;area shape="rect" coords="1,203,138,231" href="../directory.asp" title=""&gt;
&lt;area shape="default" nohref&gt;
&lt;/map&gt;

&lt;html&gt;

&lt;title&gt;&lt;/title&gt;

 &lt;LINK REL="StyleSheet" TYPE="text/css" HREF="style-sheet.css"&gt;

&lt;body bgcolor="#ffffff" text="#000000" marginwidth="0" marginheight="0" topmargin="0" leftmargin="0"&gt;
&lt;table border=0 cellspacing=0 cellpadding=0 width="100%" cellpaddding=0 height="55%"&gt;
&lt;tr valign="top"&gt;

&lt;/td&gt;
&lt;! &lt;td width="10"&gt;&amp;nbsp;&lt;/td&gt;
&lt;td width="90%"&gt;

&lt;b&gt;&lt;font color="#0000FF" size="4"&gt;TRIM-POT CROSS REFERENCE&lt;/font&gt;&lt;/b&gt;
&lt;P&gt;
&lt;TABLE BORDER=0 CELLSPACING=1 CELLPADDING=2&gt;
  &lt;TR&gt;
    &lt;TD COLSPAN=8&gt;
      &lt;FONT SIZE=3 FACE=ARIAL&gt;&lt;B&gt;RECTANGULAR MULTI-TURN&lt;/B&gt;&lt;/FONT&gt;
    &lt;/TD&gt;
  &lt;/TR&gt;
  &lt;TR&gt;
    &lt;TD ALIGN=CENTER&gt;
      &lt;B&gt;
      &lt;FONT SIZE=3 FACE=ARIAL color="#FF0000"&gt;BOURNS&lt;/FONT&gt;
      &lt;/B&gt;
    &lt;/TD&gt;
    &lt;TD ALIGN=CENTER&gt;
      &lt;B&gt;
      &lt;FONT SIZE=3 FACE=ARIAL color="#FF0000"&gt;BI&amp;nbsp;TECH&lt;/FONT&gt;
      &lt;/B&gt;
    &lt;/TD&gt;
    &lt;TD ALIGN=CENTER&gt;
      &lt;B&gt;
      &lt;FONT SIZE=3 FACE=ARIAL color="#FF0000"&gt;DALE-VISHAY&lt;/FONT&gt;
      &lt;/B&gt;
    &lt;/TD&gt;
    &lt;TD ALIGN=CENTER&gt;
      &lt;B&gt;
      &lt;FONT SIZE=3 FACE=ARIAL color="#FF0000"&gt;PHILIPS/MEPCO&lt;/FONT&gt;
      &lt;/B&gt;
    &lt;/TD&gt;
    &lt;TD ALIGN=CENTER&gt;
      &lt;B&gt;
      &lt;FONT SIZE=3 FACE=ARIAL color="#FF0000"&gt;MURATA&lt;/FONT&gt;
      &lt;/B&gt;
    &lt;/TD&gt;
    &lt;TD ALIGN=CENTER&gt;
      &lt;B&gt;
      &lt;FONT SIZE=3 FACE=ARIAL color="#FF0000"&gt;PANASONIC&lt;/FONT&gt;
      &lt;/B&gt;
    &lt;/TD&gt;
    &lt;TD ALIGN=CENTER&gt;
      &lt;B&gt;
      &lt;FONT SIZE=3 FACE=ARIAL color="#FF0000"&gt;SPECTROL&lt;/FONT&gt;
      &lt;/B&gt;
    &lt;/TD&gt;
    &lt;TD ALIGN=CENTER&gt;
      &lt;B&gt;
      &lt;FONT SIZE=3 FACE=ARIAL color="#FF0000"&gt;MILSPEC&lt;/FONT&gt;
      &lt;/B&gt;
    &lt;/TD&gt;&lt;TD&gt;&amp;nbsp;&lt;/TD&gt;
  &lt;/TR&gt;
  &lt;TR&gt;
    &lt;TD BGCOLOR="#cccccc" ALIGN=CENTER&gt;&lt;FONT FACE=ARIAL SIZE=3 &gt;
      3005P&lt;BR&gt;
      3006P&lt;BR&gt;
      3006W&lt;BR&gt;
      3006Y&lt;BR&gt;
      3009P&lt;BR&gt;
      3009W&lt;BR&gt;
      3009Y&lt;BR&gt;
      3057J&lt;BR&gt;
      3057L&lt;BR&gt;
      3057P&lt;BR&gt;
      3057Y&lt;BR&gt;
      3059J&lt;BR&gt;
      3059L&lt;BR&gt;
      3059P&lt;BR&gt;
      3059Y&lt;BR&gt;&lt;/FONT&gt;
    &lt;/TD&gt;
    &lt;TD BGCOLOR="#cccccc" ALIGN=CENTER&gt;&lt;FONT FACE=ARIAL SIZE=3&gt;
      -&lt;BR&gt;
      89P&lt;BR&gt;
      89W&lt;BR&gt;
      89X&lt;BR&gt;
      89PH&lt;BR&gt;
      76P&lt;BR&gt;
      89XH&lt;BR&gt;
      78SLT&lt;BR&gt;
      78L&amp;nbsp;ALT&lt;BR&gt;
      56P&amp;nbsp;ALT&lt;BR&gt;
      78P&amp;nbsp;ALT&lt;BR&gt;
      T8S&lt;BR&gt;
      78L&lt;BR&gt;
      56P&lt;BR&gt;
      78P&lt;BR&gt;&lt;/FONT&gt;
    &lt;/TD&gt;
    &lt;TD BGCOLOR="#cccccc" ALIGN=CENTER&gt;&lt;FONT FACE=ARIAL SIZE=3&gt;
      -&lt;BR&gt;
      T18/784&lt;BR&gt;
      783&lt;BR&gt;
      781&lt;BR&gt;
      -&lt;BR&gt;
      -&lt;BR&gt;
      -&lt;BR&gt;
      2199&lt;BR&gt;
      1697/1897&lt;BR&gt;
      1680/1880&lt;BR&gt;
      2187&lt;BR&gt;
      -&lt;BR&gt;
      -&lt;BR&gt;
      -&lt;BR&gt;
      -&lt;BR&gt;&lt;/FONT&gt;
    &lt;/TD&gt;
    &lt;TD BGCOLOR="#cccccc" ALIGN=CENTER&gt;&lt;FONT FACE=ARIAL SIZE=3&gt;
      -&lt;BR&gt;
      8035EKP/CT20/RJ-20P&lt;BR&gt;
      -&lt;BR&gt;
      RJ-20X&lt;BR&gt;
      -&lt;BR&gt;
      -&lt;BR&gt;
      -&lt;BR&gt;
      1211L&lt;BR&gt;
      8012EKQ&amp;nbsp;ALT&lt;BR&gt;
      8012EKR&amp;nbsp;ALT&lt;BR&gt;
      1211P&lt;BR&gt;
      8012EKJ&lt;BR&gt;
      8012EKL&lt;BR&gt;
      8012EKQ&lt;BR&gt;
      8012EKR&lt;BR&gt;&lt;/FONT&gt;
    &lt;/TD&gt;
    &lt;TD BGCOLOR="#cccccc" ALIGN=CENTER&gt;&lt;FONT FACE=ARIAL SIZE=3&gt;
      -&lt;BR&gt;
      2101P&lt;BR&gt;
      2101W&lt;BR&gt;
      2101Y&lt;BR&gt;
      -&lt;BR&gt;
      -&lt;BR&gt;
      -&lt;BR&gt;
      -&lt;BR&gt;
      -&lt;BR&gt;
      -&lt;BR&gt;
      -&lt;BR&gt;
      -&lt;BR&gt;
      2102L&lt;BR&gt;
      2102S&lt;BR&gt;
      2102Y&lt;BR&gt;&lt;/FONT&gt;
    &lt;/TD&gt;
    &lt;TD BGCOLOR="#cccccc" ALIGN=CENTER&gt;&lt;FONT FACE=ARIAL SIZE=3&gt;
      -&lt;BR&gt;
      EVMCOG&lt;BR&gt;
      -&lt;BR&gt;
      -&lt;BR&gt;
      -&lt;BR&gt;
      -&lt;BR&gt;
      -&lt;BR&gt;
      -&lt;BR&gt;
      -&lt;BR&gt;
      -&lt;BR&gt;
      -&lt;BR&gt;
      -&lt;BR&gt;
      -&lt;BR&gt;
      -&lt;BR&gt;
      -&lt;BR&gt;&lt;/FONT&gt;
    &lt;/TD&gt;
    &lt;TD BGCOLOR="#cccccc" ALIGN=CENTER&gt;&lt;FONT FACE=ARIAL SIZE=3&gt;
      -&lt;BR&gt;
      43P&lt;BR&gt;
      43W&lt;BR&gt;
      43Y&lt;BR&gt;
      -&lt;BR&gt;
      -&lt;BR&gt;
      -&lt;BR&gt;
      -&lt;BR&gt;
      40L&lt;BR&gt;
      40P&lt;BR&gt;
      40Y&lt;BR&gt;
      70Y-T602&lt;BR&gt;
      70L&lt;BR&gt;
      70P&lt;BR&gt;
      70Y&lt;BR&gt;&lt;/FONT&gt;
    &lt;/TD&gt;
    &lt;TD BGCOLOR="#cccccc" ALIGN=CENTER&gt;&lt;FONT FACE=ARIAL SIZE=3&gt;
      -&lt;BR&gt;
      -&lt;BR&gt;
      -&lt;BR&gt;
      -&lt;BR&gt;
      -&lt;BR&gt;
      -&lt;BR&gt;
      -&lt;BR&gt;
      -&lt;BR&gt;
      RT/RTR12&lt;BR&gt;
      RT/RTR12&lt;BR&gt;
      RT/RTR12&lt;BR&gt;
      -&lt;BR&gt;
      RJ/RJR12&lt;BR&gt;
      RJ/RJR12&lt;BR&gt;
      RJ/RJR12&lt;BR&gt;&lt;/FONT&gt;
    &lt;/TD&gt;
  &lt;/TR&gt;
  &lt;TR&gt;
    &lt;TD COLSPAN=8&gt;&amp;nbsp;
    &lt;/TD&gt;
  &lt;/TR&gt;
  &lt;TR&gt;
    &lt;TD COLSPAN=8&gt;
      &lt;FONT SIZE=4 FACE=ARIAL&gt;&lt;B&gt;SQUARE MULTI-TURN&lt;/B&gt;&lt;/FONT&gt;
    &lt;/TD&gt;
  &lt;/TR&gt;
  &lt;TR&gt;
   &lt;TD ALIGN=CENTER&gt;
      &lt;FONT SIZE=3 FACE=ARIAL&gt;&lt;B&gt;BOURN&lt;/B&gt;&lt;/FONT&gt;
    &lt;/TD&gt;
    &lt;TD ALIGN=CENTER&gt;
      &lt;FONT SIZE=3 FACE=ARIAL&gt;&lt;B&gt;BI&amp;nbsp;TECH&lt;/B&gt;&lt;/FONT&gt;
    &lt;/TD&gt;
    &lt;TD ALIGN=CENTER&gt;
      &lt;FONT SIZE=3 FACE=ARIAL&gt;&lt;B&gt;DALE-VISHAY&lt;/B&gt;&lt;/FONT&gt;
    &lt;/TD&gt;
    &lt;TD ALIGN=CENTER&gt;
      &lt;FONT SIZE=3 FACE=ARIAL&gt;&lt;B&gt;PHILIPS/MEPCO&lt;/B&gt;&lt;/FONT&gt;
    &lt;/TD&gt;
    &lt;TD ALIGN=CENTER&gt;
      &lt;FONT SIZE=3 FACE=ARIAL&gt;&lt;B&gt;MURATA&lt;/B&gt;&lt;/FONT&gt;
    &lt;/TD&gt;
    &lt;TD ALIGN=CENTER&gt;
      &lt;FONT SIZE=3 FACE=ARIAL&gt;&lt;B&gt;PANASONIC&lt;/B&gt;&lt;/FONT&gt;
    &lt;/TD&gt;
    &lt;TD ALIGN=CENTER&gt;
      &lt;FONT SIZE=3 FACE=ARIAL&gt;&lt;B&gt;SPECTROL&lt;/B&gt;&lt;/FONT&gt;
    &lt;/TD&gt;
    &lt;TD ALIGN=CENTER&gt;
      &lt;FONT SIZE=3 FACE=ARIAL&gt;&lt;B&gt;MILSPEC&lt;/B&gt;&lt;/FONT&gt;
    &lt;/TD&gt;
  &lt;/TR&gt;
  &lt;TR&gt;
    &lt;TD BGCOLOR="#cccccc" ALIGN=CENTER&gt;&lt;FONT FACE=ARIAL SIZE=3&gt;
      3250L&lt;BR&gt;
      3250P&lt;BR&gt;
      3250W&lt;BR&gt;
      3250X&lt;BR&gt;
      3252P&lt;BR&gt;
      3252W&lt;BR&gt;
      3252X&lt;BR&gt;
      3260P&lt;BR&gt;
      3260W&lt;BR&gt;
      3260X&lt;BR&gt;
      3262P&lt;BR&gt;
      3262W&lt;BR&gt;
      3262X&lt;BR&gt;
      3266P&lt;BR&gt;
      3266W&lt;BR&gt;
      3266X&lt;BR&gt;
      3290H&lt;BR&gt;
      3290P&lt;BR&gt;
      3290W&lt;BR&gt;
      3292P&lt;BR&gt;
      3292W&lt;BR&gt;
      3292X&lt;BR&gt;
      3296P&lt;BR&gt;
      3296W&lt;BR&gt;
      3296X&lt;BR&gt;
      3296Y&lt;BR&gt;
      3296Z&lt;BR&gt;
      3299P&lt;BR&gt;
      3299W&lt;BR&gt;
      3299X&lt;BR&gt;
      3299Y&lt;BR&gt;
      3299Z&lt;BR&gt;&lt;/FONT&gt;
    &lt;/TD&gt;
    &lt;TD BGCOLOR="#cccccc" ALIGN=CENTER&gt;&lt;FONT FACE=ARIAL SIZE=3&gt;
      -&lt;BR&gt;
      66P&amp;nbsp;ALT&lt;BR&gt;
      66W&amp;nbsp;ALT&lt;BR&gt;
      66X&amp;nbsp;ALT&lt;BR&gt;
      66P&amp;nbsp;ALT&lt;BR&gt;
      66W&amp;nbsp;ALT&lt;BR&gt;
      66X&amp;nbsp;ALT&lt;BR&gt;
      -&lt;BR&gt;
      64W&amp;nbsp;ALT&lt;BR&gt;
      -&lt;BR&gt;
      64P&amp;nbsp;ALT&lt;BR&gt;
      64W&amp;nbsp;ALT&lt;BR&gt;
      64X&amp;nbsp;ALT&lt;BR&gt;
      64P&lt;BR&gt;
      64W&lt;BR&gt;
      64X&lt;BR&gt;
      66X&amp;nbsp;ALT&lt;BR&gt;
      66P&amp;nbsp;ALT&lt;BR&gt;
      66W&amp;nbsp;ALT&lt;BR&gt;
      66P&lt;BR&gt;
      66W&lt;BR&gt;
      66X&lt;BR&gt;
      67P&lt;BR&gt;
      67W&lt;BR&gt;
      67X&lt;BR&gt;
      67Y&lt;BR&gt;
      67Z&lt;BR&gt;
      68P&lt;BR&gt;
      68W&lt;BR&gt;
      68X&lt;BR&gt;
      67Y&amp;nbsp;ALT&lt;BR&gt;
      67Z&amp;nbsp;ALT&lt;BR&gt;&lt;/FONT&gt;
    &lt;/TD&gt;
    &lt;TD BGCOLOR="#cccccc" ALIGN=CENTER&gt;&lt;FONT FACE=ARIAL SIZE=3&gt;
      5050&lt;BR&gt;
      5091&lt;BR&gt;
      5080&lt;BR&gt;
      5087&lt;BR&gt;
      -&lt;BR&gt;
      -&lt;BR&gt;
      -&lt;BR&gt;
      -&lt;BR&gt;
      -&lt;BR&gt;
      -&lt;BR&gt;
      -&lt;BR&gt;
      T63YB&lt;BR&gt;
      T63XB&lt;BR&gt;
      -&lt;BR&gt;
      -&lt;BR&gt;
      -&lt;BR&gt;
      5887&lt;BR&gt;
      5891&lt;BR&gt;
      5880&lt;BR&gt;
      -&lt;BR&gt;
      -&lt;BR&gt;
      -&lt;BR&gt;
      T93Z&lt;BR&gt;
      T93YA&lt;BR&gt;
      T93XA&lt;BR&gt;
      T93YB&lt;BR&gt;
      T93XB&lt;BR&gt;
      -&lt;BR&gt;
      -&lt;BR&gt;
      -&lt;BR&gt;
      -&lt;BR&gt;
      -&lt;BR&gt;&lt;/FONT&gt;
    &lt;/TD&gt;
    &lt;TD BGCOLOR="#cccccc" ALIGN=CENTER&gt;&lt;FONT FACE=ARIAL SIZE=3&gt;
      -&lt;BR&gt;
      -&lt;BR&gt;
      -&lt;BR&gt;
      -&lt;BR&gt;
      -&lt;BR&gt;
      -&lt;BR&gt;
      -&lt;BR&gt;
      -&lt;BR&gt;
      -&lt;BR&gt;
      -&lt;BR&gt;
      8026EKP&lt;BR&gt;
      8026EKW&lt;BR&gt;
      8026EKM&lt;BR&gt;
      8026EKP&lt;BR&gt;
      8026EKB&lt;BR&gt;
      8026EKM&lt;BR&gt;
      1309X&lt;BR&gt;
      1309P&lt;BR&gt;
      1309W&lt;BR&gt;
      8024EKP&lt;BR&gt;
      8024EKW&lt;BR&gt;
      8024EKN&lt;BR&gt;
      RJ-9P/CT9P&lt;BR&gt;
      RJ-9W&lt;BR&gt;
      RJ-9X&lt;BR&gt;
      -&lt;BR&gt;
      -&lt;BR&gt;
      -&lt;BR&gt;
      -&lt;BR&gt;
      -&lt;BR&gt;
      -&lt;BR&gt;
      -&lt;BR&gt;&lt;/FONT&gt;
    &lt;/TD&gt;
    &lt;TD BGCOLOR="#cccccc" ALIGN=CENTER&gt;&lt;FONT FACE=ARIAL SIZE=3&gt;
      -&lt;BR&gt;
      -&lt;BR&gt;
      -&lt;BR&gt;
      -&lt;BR&gt;
      -&lt;BR&gt;
      -&lt;BR&gt;
      -&lt;BR&gt;
      -&lt;BR&gt;
      -&lt;BR&gt;
      -&lt;BR&gt;
      3103P&lt;BR&gt;
      3103Y&lt;BR&gt;
      3103Z&lt;BR&gt;
      3103P&lt;BR&gt;
      3103Y&lt;BR&gt;
      3103Z&lt;BR&gt;
      -&lt;BR&gt;
      -&lt;BR&gt;
      -&lt;BR&gt;
      -&lt;BR&gt;
      -&lt;BR&gt;
      -&lt;BR&gt;
      3105P/3106P&lt;BR&gt;
      3105W/3106W&lt;BR&gt;
      3105X/3106X&lt;BR&gt;
      3105Y/3106Y&lt;BR&gt;
      3105Z/3105Z&lt;BR&gt;
      3102P&lt;BR&gt;
      3102W&lt;BR&gt;
      3102X&lt;BR&gt;
      3102Y&lt;BR&gt;
      3102Z&lt;BR&gt;&lt;/FONT&gt;
    &lt;/TD&gt;
    &lt;TD BGCOLOR="#cccccc" ALIGN=CENTER&gt;&lt;FONT FACE=ARIAL SIZE=3&gt;
      -&lt;BR&gt;
      -&lt;BR&gt;
      -&lt;BR&gt;
      -&lt;BR&gt;
      -&lt;BR&gt;
      -&lt;BR&gt;
      -&lt;BR&gt;
      -&lt;BR&gt;
      -&lt;BR&gt;
      -&lt;BR&gt;
      -&lt;BR&gt;
      -&lt;BR&gt;
      -&lt;BR&gt;
      -&lt;BR&gt;
      -&lt;BR&gt;
      -&lt;BR&gt;
      -&lt;BR&gt;
      -&lt;BR&gt;
      -&lt;BR&gt;
      -&lt;BR&gt;
      -&lt;BR&gt;
      -&lt;BR&gt;
      EVMCBG&lt;BR&gt;
      EVMCCG&lt;BR&gt;
      -&lt;BR&gt;
      -&lt;BR&gt;
      -&lt;BR&gt;
      -&lt;BR&gt;
      -&lt;BR&gt;
      -&lt;BR&gt;
      -&lt;BR&gt;
      -&lt;BR&gt;&lt;/FONT&gt;
    &lt;/TD&gt;
    &lt;TD BGCOLOR="#cccccc" ALIGN=CENTER&gt;&lt;FONT FACE=ARIAL SIZE=3&gt;
      55-1-X&lt;BR&gt;
      55-4-X&lt;BR&gt;
      55-3-X&lt;BR&gt;
      55-2-X&lt;BR&gt;
      -&lt;BR&gt;
      -&lt;BR&gt;
      -&lt;BR&gt;
      -&lt;BR&gt;
      -&lt;BR&gt;
      -&lt;BR&gt;
      -&lt;BR&gt;
      -&lt;BR&gt;
      -&lt;BR&gt;
      -&lt;BR&gt;
      -&lt;BR&gt;
      -&lt;BR&gt;
      50-2-X&lt;BR&gt;
      50-4-X&lt;BR&gt;
      50-3-X&lt;BR&gt;
      -&lt;BR&gt;
      -&lt;BR&gt;
      -&lt;BR&gt;
      64P&lt;BR&gt;
      64W&lt;BR&gt;
      64X&lt;BR&gt;
      64Y&lt;BR&gt;
      64Z&lt;BR&gt;
      -&lt;BR&gt;
      -&lt;BR&gt;
      -&lt;BR&gt;
      -&lt;BR&gt;
      -&lt;BR&gt;&lt;/FONT&gt;
    &lt;/TD&gt;
    &lt;TD BGCOLOR="#cccccc" ALIGN=CENTER&gt;&lt;FONT FACE=ARIAL SIZE=3&gt;
      RT/RTR22&lt;BR&gt;
      RT/RTR22&lt;BR&gt;
      RT/RTR22&lt;BR&gt;
      RT/RTR22&lt;BR&gt;
      RJ/RJR22&lt;BR&gt;
      RJ/RJR22&lt;BR&gt;
      RJ/RJR22&lt;BR&gt;
      RT/RTR26&lt;BR&gt;
      RT/RTR26&lt;BR&gt;
      RT/RTR26&lt;BR&gt;
      RJ/RJR26&lt;BR&gt;
      RJ/RJR26&lt;BR&gt;
      RJ/RJR26&lt;BR&gt;
      RJ/RJR26&lt;BR&gt;
      RJ/RJR26&lt;BR&gt;
      RJ/RJR26&lt;BR&gt;
      RT/RTR24&lt;BR&gt;
      RT/RTR24&lt;BR&gt;
      RT/RTR24&lt;BR&gt;
      RJ/RJR24&lt;BR&gt;
      RJ/RJR24&lt;BR&gt;
      RJ/RJR24&lt;BR&gt;
      RJ/RJR24&lt;BR&gt;
      RJ/RJR24&lt;BR&gt;
      RJ/RJR24&lt;BR&gt;
      -&lt;BR&gt;
      -&lt;BR&gt;
      -&lt;BR&gt;
      -&lt;BR&gt;
      -&lt;BR&gt;
      -&lt;BR&gt;
      -&lt;BR&gt;&lt;/FONT&gt;
    &lt;/TD&gt;
  &lt;/TR&gt;
  &lt;TR&gt;
    &lt;TD COLSPAN=8&gt;&amp;nbsp;
    &lt;/TD&gt;
  &lt;/TR&gt;
  &lt;TR&gt;
    &lt;TD COLSPAN=8&gt;
      &lt;FONT SIZE=4 FACE=ARIAL&gt;&lt;B&gt;SINGLE TURN&lt;/B&gt;&lt;/FONT&gt;
    &lt;/TD&gt;
  &lt;/TR&gt;
  &lt;TR&gt;
    &lt;TD ALIGN=CENTER&gt;
      &lt;FONT SIZE=3 FACE=ARIAL&gt;&lt;B&gt;BOURN&lt;/B&gt;&lt;/FONT&gt;
    &lt;/TD&gt;
    &lt;TD ALIGN=CENTER&gt;
      &lt;FONT SIZE=3 FACE=ARIAL&gt;&lt;B&gt;BI&amp;nbsp;TECH&lt;/B&gt;&lt;/FONT&gt;
    &lt;/TD&gt;
    &lt;TD ALIGN=CENTER&gt;
      &lt;FONT SIZE=3 FACE=ARIAL&gt;&lt;B&gt;DALE-VISHAY&lt;/B&gt;&lt;/FONT&gt;
    &lt;/TD&gt;
    &lt;TD ALIGN=CENTER&gt;
      &lt;FONT SIZE=3 FACE=ARIAL&gt;&lt;B&gt;PHILIPS/MEPCO&lt;/B&gt;&lt;/FONT&gt;
    &lt;/TD&gt;
    &lt;TD ALIGN=CENTER&gt;
      &lt;FONT SIZE=3 FACE=ARIAL&gt;&lt;B&gt;MURATA&lt;/B&gt;&lt;/FONT&gt;
    &lt;/TD&gt;
    &lt;TD ALIGN=CENTER&gt;
      &lt;FONT SIZE=3 FACE=ARIAL&gt;&lt;B&gt;PANASONIC&lt;/B&gt;&lt;/FONT&gt;
    &lt;/TD&gt;
    &lt;TD ALIGN=CENTER&gt;
      &lt;FONT SIZE=3 FACE=ARIAL&gt;&lt;B&gt;SPECTROL&lt;/B&gt;&lt;/FONT&gt;
    &lt;/TD&gt;
    &lt;TD ALIGN=CENTER&gt;
      &lt;FONT SIZE=3 FACE=ARIAL&gt;&lt;B&gt;MILSPEC&lt;/B&gt;&lt;/FONT&gt;
    &lt;/TD&gt;
  &lt;/TR&gt;
  &lt;TR&gt;
    &lt;TD BGCOLOR="#cccccc" ALIGN=CENTER&gt;&lt;FONT FACE=ARIAL SIZE=3&gt;
      3323P&lt;BR&gt;
      3323S&lt;BR&gt;
      3323W&lt;BR&gt;
      3329H&lt;BR&gt;
      3329P&lt;BR&gt;
      3329W&lt;BR&gt;
      3339H&lt;BR&gt;
      3339P&lt;BR&gt;
      3339W&lt;BR&gt;
      3352E&lt;BR&gt;
      3352H&lt;BR&gt;
      3352K&lt;BR&gt;
      3352P&lt;BR&gt;
      3352T&lt;BR&gt;
      3352V&lt;BR&gt;
      3352W&lt;BR&gt;
      3362H&lt;BR&gt;
      3362M&lt;BR&gt;
      3362P&lt;BR&gt;
      3362R&lt;BR&gt;
      3362S&lt;BR&gt;
      3362U&lt;BR&gt;
      3362W&lt;BR&gt;
      3362X&lt;BR&gt;
      3386B&lt;BR&gt;
      3386C&lt;BR&gt;
      3386F&lt;BR&gt;
      3386H&lt;BR&gt;
      3386K&lt;BR&gt;
      3386M&lt;BR&gt;
      3386P&lt;BR&gt;
      3386S&lt;BR&gt;
      3386W&lt;BR&gt;
      3386X&lt;BR&gt;&lt;/FONT&gt;
    &lt;/TD&gt;
    &lt;TD BGCOLOR="#cccccc" ALIGN=CENTER&gt;&lt;FONT FACE=ARIAL SIZE=3&gt;
      25P&lt;BR&gt;
      25S&lt;BR&gt;
      25RX&lt;BR&gt;
      82P&lt;BR&gt;
      82M&lt;BR&gt;
      82PA&lt;BR&gt;
      -&lt;BR&gt;
      -&lt;BR&gt;
      -&lt;BR&gt;
      91E&lt;BR&gt;
      91X&lt;BR&gt;
      91T&lt;BR&gt;
      91B&lt;BR&gt;
      91A&lt;BR&gt;
      91V&lt;BR&gt;
      91W&lt;BR&gt;
      25W&lt;BR&gt;
      25V&lt;BR&gt;
      25P&lt;BR&gt;
      -&lt;BR&gt;
      25S&lt;BR&gt;
      25U&lt;BR&gt;
      25RX&lt;BR&gt;
      25X&lt;BR&gt;
      72XW&lt;BR&gt;
      72XL&lt;BR&gt;
      72PM&lt;BR&gt;
      72RX&lt;BR&gt;
      -&lt;BR&gt;
      72PX&lt;BR&gt;
      72P&lt;BR&gt;
      72RXW&lt;BR&gt;
      72RXL&lt;BR&gt;
      72X&lt;BR&gt;&lt;/FONT&gt;
    &lt;/TD&gt;
    &lt;TD BGCOLOR="#cccccc" ALIGN=CENTER&gt;&lt;FONT FACE=ARIAL SIZE=3&gt;
      -&lt;BR&gt;
      -&lt;BR&gt;
      -&lt;BR&gt;
      T7YB&lt;BR&gt;
      T7YA&lt;BR&gt;
      -&lt;BR&gt;
      -&lt;BR&gt;
      -&lt;BR&gt;
      -&lt;BR&gt;
      -&lt;BR&gt;
      -&lt;BR&gt;
      -&lt;BR&gt;
      -&lt;BR&gt;
      -&lt;BR&gt;
      -&lt;BR&gt;
      -&lt;BR&gt;
      -&lt;BR&gt;
      TXD&lt;BR&gt;
      TYA&lt;BR&gt;
      TYP&lt;BR&gt;
      -&lt;BR&gt;
      TYD&lt;BR&gt;
      TX&lt;BR&gt;
      -&lt;BR&gt;
      150SX&lt;BR&gt;
      100SX&lt;BR&gt;
      102T&lt;BR&gt;
      101S&lt;BR&gt;
      190T&lt;BR&gt;
      150TX&lt;BR&gt;
      101&lt;BR&gt;
      -&lt;BR&gt;
      -&lt;BR&gt;
      101SX&lt;BR&gt;&lt;/FONT&gt;
    &lt;/TD&gt;
    &lt;TD BGCOLOR="#cccccc" ALIGN=CENTER&gt;&lt;FONT FACE=ARIAL SIZE=3&gt;
      ET6P&lt;BR&gt;
      ET6S&lt;BR&gt;
      ET6X&lt;BR&gt;
      RJ-6W/8014EMW&lt;BR&gt;
      RJ-6P/8014EMP&lt;BR&gt;
      RJ-6X/8014EMX&lt;BR&gt;
      TM7W&lt;BR&gt;
      TM7P&lt;BR&gt;
      TM7X&lt;BR&gt;
      -&lt;BR&gt;
      8017SMS&lt;BR&gt;
      -&lt;BR&gt;
      8017SMB&lt;BR&gt;
      8017SMA&lt;BR&gt;
      -&lt;BR&gt;
      -&lt;BR&gt;
      CT-6W&lt;BR&gt;
      CT-6H&lt;BR&gt;
      CT-6P&lt;BR&gt;
      CT-6R&lt;BR&gt;
      -&lt;BR&gt;
      CT-6V&lt;BR&gt;
      CT-6X&lt;BR&gt;
      -&lt;BR&gt;
      -&lt;BR&gt;
      8038EKV&lt;BR&gt;
      -&lt;BR&gt;
      8038EKX&lt;BR&gt;
      -&lt;BR&gt;
      -&lt;BR&gt;
      8038EKP&lt;BR&gt;
      8038EKZ&lt;BR&gt;
      8038EKW&lt;BR&gt;
      -&lt;BR&gt;&lt;/FONT&gt;
    &lt;/TD&gt;
    &lt;TD BGCOLOR="#cccccc" ALIGN=CENTER&gt;&lt;FONT FACE=ARIAL SIZE=3&gt;
      -&lt;BR&gt;
      -&lt;BR&gt;
      -&lt;BR&gt;
      3321H&lt;BR&gt;
      3321P&lt;BR&gt;
      3321N&lt;BR&gt;
      1102H&lt;BR&gt;
      1102P&lt;BR&gt;
      1102T&lt;BR&gt;
      RVA0911V304A&lt;BR&gt;
      -&lt;BR&gt;
      RVA0911H413A&lt;BR&gt;
      RVG0707V100A&lt;BR&gt;
      RVA0607V(H)306A&lt;BR&gt;
      RVA1214H213A&lt;BR&gt;
      -&lt;BR&gt;
      -&lt;BR&gt;
      -&lt;BR&gt;
      -&lt;BR&gt;
      -&lt;BR&gt;
      -&lt;BR&gt;
      -&lt;BR&gt;
      -&lt;BR&gt;
      -&lt;BR&gt;
      3104B&lt;BR&gt;
      3104C&lt;BR&gt;
      3104F&lt;BR&gt;
      3104H&lt;BR&gt;
      -&lt;BR&gt;
      3104M&lt;BR&gt;
      3104P&lt;BR&gt;
      3104S&lt;BR&gt;
      3104W&lt;BR&gt;
      3104X&lt;BR&gt;&lt;/FONT&gt;
    &lt;/TD&gt;
    &lt;TD BGCOLOR="#cccccc" ALIGN=CENTER&gt;&lt;FONT FACE=ARIAL SIZE=3&gt;
      EVMQ0G&lt;BR&gt;
      EVMQIG&lt;BR&gt;
      EVMQ3G&lt;BR&gt;
      EVMS0G&lt;BR&gt;
      EVMQ0G&lt;BR&gt;
      EVMG0G&lt;BR&gt;
      -&lt;BR&gt;
      -&lt;BR&gt;
      -&lt;BR&gt;
      EVMK4GA00B&lt;BR&gt;
      EVM30GA00B&lt;BR&gt;
      EVMK0GA00B&lt;BR&gt;
      EVM38GA00B&lt;BR&gt;
      EVMB6&lt;BR&gt;
      EVLQ0&lt;BR&gt;
      -&lt;BR&gt;
      EVMMSG&lt;BR&gt;
      EVMMBG&lt;BR&gt;
      EVMMAG&lt;BR&gt;
      -&lt;BR&gt;
      -&lt;BR&gt;
      EVMMCS&lt;BR&gt;
      -&lt;BR&gt;
      -&lt;BR&gt;
      -&lt;BR&gt;
      -&lt;BR&gt;
      -&lt;BR&gt;
      EVMM1&lt;BR&gt;
      -&lt;BR&gt;
      -&lt;BR&gt;
      EVMM0&lt;BR&gt;
      -&lt;BR&gt;
      -&lt;BR&gt;
      EVMM3&lt;BR&gt;&lt;/FONT&gt;
    &lt;/TD&gt;
    &lt;TD BGCOLOR="#cccccc" ALIGN=CENTER&gt;&lt;FONT FACE=ARIAL SIZE=3&gt;
      -&lt;BR&gt;
      -&lt;BR&gt;
      -&lt;BR&gt;
      62-3-1&lt;BR&gt;
      62-1-2&lt;BR&gt;
      -&lt;BR&gt;
      -&lt;BR&gt;
      -&lt;BR&gt;
      -&lt;BR&gt;
      -&lt;BR&gt;
      -&lt;BR&gt;
      -&lt;BR&gt;
      -&lt;BR&gt;
      -&lt;BR&gt;
      -&lt;BR&gt;
      -&lt;BR&gt;
      67R&lt;BR&gt;
      -&lt;BR&gt;
      67P&lt;BR&gt;
      -&lt;BR&gt;
      -&lt;BR&gt;
      -&lt;BR&gt;
      -&lt;BR&gt;
      67X&lt;BR&gt;
      63V&lt;BR&gt;
      63S&lt;BR&gt;
      63M&lt;BR&gt;
      -&lt;BR&gt;
      -&lt;BR&gt;
      63H&lt;BR&gt;
      63P&lt;BR&gt;
      -&lt;BR&gt;
      -&lt;BR&gt;
      63X&lt;BR&gt;&lt;/FONT&gt;
    &lt;/TD&gt;
    &lt;TD BGCOLOR="#cccccc" ALIGN=CENTER&gt;&lt;FONT FACE=ARIAL SIZE=3&gt;
      -&lt;BR&gt;
      -&lt;BR&gt;
      -&lt;BR&gt;
      RJ/RJR50&lt;BR&gt;
      RJ/RJR50&lt;BR&gt;
      RJ/RJR50&lt;BR&gt;
      -&lt;BR&gt;
      -&lt;BR&gt;
      -&lt;BR&gt;
      -&lt;BR&gt;
      -&lt;BR&gt;
      -&lt;BR&gt;
      -&lt;BR&gt;
      -&lt;BR&gt;
      -&lt;BR&gt;
      -&lt;BR&gt;
      -&lt;BR&gt;
      -&lt;BR&gt;
      -&lt;BR&gt;
      -&lt;BR&gt;
      -&lt;BR&gt;
      -&lt;BR&gt;
      -&lt;BR&gt;
      -&lt;BR&gt;
      -&lt;BR&gt;
      -&lt;BR&gt;
      -&lt;BR&gt;
      -&lt;BR&gt;
      -&lt;BR&gt;
      -&lt;BR&gt;
      -&lt;BR&gt;
      -&lt;BR&gt;
      -&lt;BR&gt;
      -&lt;BR&gt;&lt;/FONT&gt;
    &lt;/TD&gt;
  &lt;/TR&gt;
&lt;/TABLE&gt;
&lt;P&gt;&amp;nbsp;&lt;P&gt;
&lt;TABLE BORDER=0 CELLSPACING=1 CELLPADDING=3&gt;
  &lt;TR&gt;
    &lt;TD COLSPAN=7&gt;
      &lt;FONT color="#0000FF" SIZE=4 FACE=ARIAL&gt;&lt;B&gt;SMD TRIM-POT CROSS REFERENCE&lt;/B&gt;&lt;/FONT&gt;
      &lt;P&gt;
      &lt;FONT SIZE=4 FACE=ARIAL&gt;&lt;B&gt;MULTI-TURN&lt;/B&gt;&lt;/FONT&gt;
    &lt;/TD&gt;
  &lt;/TR&gt;
  &lt;TR&gt;
    &lt;TD&gt;
      &lt;FONT SIZE=3 FACE=ARIAL&gt;&lt;B&gt;BOURNS&lt;/B&gt;&lt;/FONT&gt;
    &lt;/TD&gt;
    &lt;TD&gt;
      &lt;FONT SIZE=3 FACE=ARIAL&gt;&lt;B&gt;BI&amp;nbsp;TECH&lt;/B&gt;&lt;/FONT&gt;
    &lt;/TD&gt;
    &lt;TD&gt;
      &lt;FONT SIZE=3 FACE=ARIAL&gt;&lt;B&gt;DALE-VISHAY&lt;/B&gt;&lt;/FONT&gt;
    &lt;/TD&gt;
    &lt;TD&gt;
      &lt;FONT SIZE=3 FACE=ARIAL&gt;&lt;B&gt;PHILIPS/MEPCO&lt;/B&gt;&lt;/FONT&gt;
    &lt;/TD&gt;
    &lt;TD&gt;
      &lt;FONT SIZE=3 FACE=ARIAL&gt;&lt;B&gt;PANASONIC&lt;/B&gt;&lt;/FONT&gt;
    &lt;/TD&gt;
    &lt;TD&gt;
      &lt;FONT SIZE=3 FACE=ARIAL&gt;&lt;B&gt;TOCOS&lt;/B&gt;&lt;/FONT&gt;
    &lt;/TD&gt;
    &lt;TD&gt;
      &lt;FONT SIZE=3 FACE=ARIAL&gt;&lt;B&gt;AUX/KYOCERA&lt;/B&gt;&lt;/FONT&gt;
    &lt;/TD&gt;
  &lt;/TR&gt;
  &lt;TR&gt;
    &lt;TD BGCOLOR="#cccccc" ALIGN=CENTER&gt;&lt;FONT FACE=ARIAL SIZE=3&gt;
      3224G&lt;BR&gt;
      3224J&lt;BR&gt;
      3224W&lt;BR&gt;
      3269P&lt;BR&gt;
      3269W&lt;BR&gt;
      3269X&lt;BR&gt;&lt;/FONT&gt;
    &lt;/TD&gt;
    &lt;TD BGCOLOR="#cccccc" ALIGN=CENTER&gt;&lt;FONT FACE=ARIAL SIZE=3&gt;
      44G&lt;BR&gt;
      44J&lt;BR&gt;
      44W&lt;BR&gt;
      84P&lt;BR&gt;
      84W&lt;BR&gt;
      84X&lt;BR&gt;&lt;/FONT&gt;
    &lt;/TD&gt;
    &lt;TD BGCOLOR="#cccccc" ALIGN=CENTER&gt;&lt;FONT FACE=ARIAL SIZE=3&gt;
      -&lt;BR&gt;
      -&lt;BR&gt;
      -&lt;BR&gt;
      ST63Z&lt;BR&gt;
      ST63Y&lt;BR&gt;
      -&lt;BR&gt;&lt;/FONT&gt;
    &lt;/TD&gt;
    &lt;TD BGCOLOR="#cccccc" ALIGN=CENTER&gt;&lt;FONT FACE=ARIAL SIZE=3&gt;
      -&lt;BR&gt;
      -&lt;BR&gt;
      -&lt;BR&gt;
      ST5P&lt;BR&gt;
      ST5W&lt;BR&gt;
      ST5X&lt;BR&gt;&lt;/FONT&gt;
    &lt;/TD&gt;
    &lt;TD BGCOLOR="#cccccc" ALIGN=CENTER&gt;&lt;FONT FACE=ARIAL SIZE=3&gt;
      -&lt;BR&gt;
      -&lt;BR&gt;
      -&lt;BR&gt;
      -&lt;BR&gt;
      -&lt;BR&gt;
      -&lt;BR&gt;&lt;/FONT&gt;
    &lt;/TD&gt;
    &lt;TD BGCOLOR="#cccccc" ALIGN=CENTER&gt;&lt;FONT FACE=ARIAL SIZE=3&gt;
      -&lt;BR&gt;
      -&lt;BR&gt;
      -&lt;BR&gt;
      -&lt;BR&gt;
      -&lt;BR&gt;
      -&lt;BR&gt;&lt;/FONT&gt;
    &lt;/TD&gt;
    &lt;TD BGCOLOR="#cccccc" ALIGN=CENTER&gt;&lt;FONT FACE=ARIAL SIZE=3&gt;
      -&lt;BR&gt;
      -&lt;BR&gt;
      -&lt;BR&gt;
      -&lt;BR&gt;
      -&lt;BR&gt;
      -&lt;BR&gt;&lt;/FONT&gt;
    &lt;/TD&gt;
  &lt;/TR&gt;
  &lt;TR&gt;
    &lt;TD COLSPAN=7&gt;&amp;nbsp;
    &lt;/TD&gt;
  &lt;/TR&gt;
  &lt;TR&gt;
    &lt;TD COLSPAN=7&gt;
      &lt;FONT SIZE=4 FACE=ARIAL&gt;&lt;B&gt;SINGLE TURN&lt;/B&gt;&lt;/FONT&gt;
    &lt;/TD&gt;
  &lt;/TR&gt;
  &lt;TR&gt;
    &lt;TD&gt;
      &lt;FONT SIZE=3 FACE=ARIAL&gt;&lt;B&gt;BOURNS&lt;/B&gt;&lt;/FONT&gt;
    &lt;/TD&gt;
    &lt;TD&gt;
      &lt;FONT SIZE=3 FACE=ARIAL&gt;&lt;B&gt;BI&amp;nbsp;TECH&lt;/B&gt;&lt;/FONT&gt;
    &lt;/TD&gt;
    &lt;TD&gt;
      &lt;FONT SIZE=3 FACE=ARIAL&gt;&lt;B&gt;DALE-VISHAY&lt;/B&gt;&lt;/FONT&gt;
    &lt;/TD&gt;
    &lt;TD&gt;
      &lt;FONT SIZE=3 FACE=ARIAL&gt;&lt;B&gt;PHILIPS/MEPCO&lt;/B&gt;&lt;/FONT&gt;
    &lt;/TD&gt;
    &lt;TD&gt;
      &lt;FONT SIZE=3 FACE=ARIAL&gt;&lt;B&gt;PANASONIC&lt;/B&gt;&lt;/FONT&gt;
    &lt;/TD&gt;
    &lt;TD&gt;
      &lt;FONT SIZE=3 FACE=ARIAL&gt;&lt;B&gt;TOCOS&lt;/B&gt;&lt;/FONT&gt;
    &lt;/TD&gt;
    &lt;TD&gt;
      &lt;FONT SIZE=3 FACE=ARIAL&gt;&lt;B&gt;AUX/KYOCERA&lt;/B&gt;&lt;/FONT&gt;
    &lt;/TD&gt;
  &lt;/TR&gt;
  &lt;TR&gt;
    &lt;TD BGCOLOR="#cccccc" ALIGN=CENTER&gt;&lt;FONT FACE=ARIAL SIZE=3&gt;
      3314G&lt;BR&gt;
      3314J&lt;BR&gt;
      3364A/B&lt;BR&gt;
      3364C/D&lt;BR&gt;
      3364W/X&lt;BR&gt;
      3313G&lt;BR&gt;
      3313J&lt;BR&gt;&lt;/FONT&gt;
    &lt;/TD&gt;
    &lt;TD BGCOLOR="#cccccc" ALIGN=CENTER&gt;&lt;FONT FACE=ARIAL SIZE=3&gt;
      23B&lt;BR&gt;
      23A&lt;BR&gt;
      21X&lt;BR&gt;
      21W&lt;BR&gt;
      -&lt;BR&gt;
      22B&lt;BR&gt;
      22A&lt;BR&gt;&lt;/FONT&gt;
    &lt;/TD&gt;
    &lt;TD BGCOLOR="#cccccc" ALIGN=CENTER&gt;&lt;FONT FACE=ARIAL SIZE=3&gt;
      ST5YL/ST53YL&lt;BR&gt;
      ST5YJ/5T53YJ&lt;BR&gt;
      ST-23A&lt;BR&gt;
      ST-22B&lt;BR&gt;
      ST-22&lt;BR&gt;
      -&lt;BR&gt;
      -&lt;BR&gt;&lt;/FONT&gt;
    &lt;/TD&gt;
    &lt;TD BGCOLOR="#cccccc" ALIGN=CENTER&gt;&lt;FONT FACE=ARIAL SIZE=3&gt;
      ST-4B&lt;BR&gt;
      ST-4A&lt;BR&gt;
      -&lt;BR&gt;
      -&lt;BR&gt;
      -&lt;BR&gt;
      ST-3B&lt;BR&gt;
      ST-3A&lt;BR&gt;&lt;/FONT&gt;
    &lt;/TD&gt;
    &lt;TD BGCOLOR="#cccccc" ALIGN=CENTER&gt;&lt;FONT FACE=ARIAL SIZE=3&gt;
      -&lt;BR&gt;
      EVM-6YS&lt;BR&gt;
      EVM-1E&lt;BR&gt;
      EVM-1G&lt;BR&gt;
      EVM-1D&lt;BR&gt;
      -&lt;BR&gt;
      -&lt;BR&gt;&lt;/FONT&gt;
    &lt;/TD&gt;
    &lt;TD BGCOLOR="#cccccc" ALIGN=CENTER&gt;&lt;FONT FACE=ARIAL SIZE=3&gt;
      G4B&lt;BR&gt;
      G4A&lt;BR&gt;
      TR04-3S1&lt;BR&gt;
      TRG04-2S1&lt;BR&gt;
      -&lt;BR&gt;
      -&lt;BR&gt;
      -&lt;BR&gt;&lt;/FONT&gt;
    &lt;/TD&gt;
    &lt;TD BGCOLOR="#cccccc" ALIGN=CENTER&gt;&lt;FONT FACE=ARIAL SIZE=3&gt;
      -&lt;BR&gt;
      -&lt;BR&gt;
      DVR-43A&lt;BR&gt;
      CVR-42C&lt;BR&gt;
      CVR-42A/C&lt;BR&gt;
      -&lt;BR&gt;
      -&lt;BR&gt;&lt;/FONT&gt;
    &lt;/TD&gt;
  &lt;/TR&gt;
&lt;/TABLE&gt;
&lt;P&gt;
&lt;FONT SIZE=4 FACE=ARIAL&gt;&lt;B&gt;ALT =&amp;nbsp;ALTERNATE&lt;/B&gt;&lt;/FONT&gt;
&lt;P&gt;

&amp;nbsp;
&lt;P&gt;
&lt;/td&gt;
&lt;/tr&gt;
&lt;/table&gt;
&lt;/BODY&gt;&lt;/HTML&gt;</description>
<packages>
<package name="C050-030X075">
<description>&lt;b&gt;CAPACITOR&lt;/b&gt;&lt;p&gt;
grid 5 mm, outline 3 x 7.5 mm</description>
<wire x1="-0.3048" y1="0.635" x2="-0.3048" y2="0" width="0.3048" layer="21"/>
<wire x1="-0.3048" y1="0" x2="-0.3048" y2="-0.635" width="0.3048" layer="21"/>
<wire x1="-0.3048" y1="0" x2="-1.524" y2="0" width="0.1524" layer="21"/>
<wire x1="0.3302" y1="0.635" x2="0.3302" y2="0" width="0.3048" layer="21"/>
<wire x1="0.3302" y1="0" x2="0.3302" y2="-0.635" width="0.3048" layer="21"/>
<wire x1="0.3302" y1="0" x2="1.524" y2="0" width="0.1524" layer="21"/>
<wire x1="-3.683" y1="1.27" x2="-3.683" y2="-1.27" width="0.1524" layer="21"/>
<wire x1="-3.429" y1="-1.524" x2="3.429" y2="-1.524" width="0.1524" layer="21"/>
<wire x1="3.683" y1="-1.27" x2="3.683" y2="1.27" width="0.1524" layer="21"/>
<wire x1="3.429" y1="1.524" x2="-3.429" y2="1.524" width="0.1524" layer="21"/>
<wire x1="3.429" y1="1.524" x2="3.683" y2="1.27" width="0.1524" layer="21" curve="-90"/>
<wire x1="3.429" y1="-1.524" x2="3.683" y2="-1.27" width="0.1524" layer="21" curve="90"/>
<wire x1="-3.683" y1="-1.27" x2="-3.429" y2="-1.524" width="0.1524" layer="21" curve="90"/>
<wire x1="-3.683" y1="1.27" x2="-3.429" y2="1.524" width="0.1524" layer="21" curve="-90"/>
<pad name="1" x="-2.54" y="0" drill="0.8128" diameter="1.778"/>
<pad name="2" x="2.54" y="0" drill="0.8128" diameter="1.778"/>
<text x="-3.556" y="1.905" size="1.27" layer="25" ratio="10">&gt;NAME</text>
<text x="-3.556" y="-3.048" size="1.27" layer="27" ratio="10">&gt;VALUE</text>
</package>
<package name="B45181B">
<description>&lt;b&gt;ELECTROLYTIC CAPACITOR&lt;/b&gt;&lt;p&gt;
body 7.6 x 5 mm, rectangle, grid 5.08 mm</description>
<wire x1="3.302" y1="2.413" x2="-2.921" y2="2.413" width="0.1524" layer="21"/>
<wire x1="3.683" y1="2.032" x2="3.683" y2="-2.032" width="0.1524" layer="21"/>
<wire x1="-2.921" y1="-2.413" x2="3.302" y2="-2.413" width="0.1524" layer="21"/>
<wire x1="-3.683" y1="1.651" x2="-2.921" y2="2.413" width="0.1524" layer="21"/>
<wire x1="-1.778" y1="1.6764" x2="-1.778" y2="1.0414" width="0.1524" layer="21"/>
<wire x1="-1.4478" y1="1.3716" x2="-2.1082" y2="1.3716" width="0.1524" layer="21"/>
<wire x1="-1.524" y1="0" x2="-0.635" y2="0" width="0.1524" layer="21"/>
<wire x1="-0.635" y1="0" x2="-0.635" y2="-1.2192" width="0.1524" layer="21"/>
<wire x1="-0.635" y1="-1.2192" x2="-0.127" y2="-1.2192" width="0.1524" layer="21"/>
<wire x1="-0.127" y1="-1.2192" x2="-0.127" y2="1.2192" width="0.1524" layer="21"/>
<wire x1="-0.127" y1="1.2192" x2="-0.635" y2="1.2192" width="0.1524" layer="21"/>
<wire x1="-0.635" y1="1.2192" x2="-0.635" y2="0" width="0.1524" layer="21"/>
<wire x1="0.635" y1="0" x2="1.524" y2="0" width="0.1524" layer="21"/>
<wire x1="-2.921" y1="-2.413" x2="-3.683" y2="-1.651" width="0.1524" layer="21"/>
<wire x1="-3.683" y1="1.651" x2="-3.683" y2="-1.651" width="0.1524" layer="21"/>
<wire x1="3.302" y1="2.413" x2="3.683" y2="2.032" width="0.1524" layer="21" curve="-90"/>
<wire x1="3.302" y1="-2.413" x2="3.683" y2="-2.032" width="0.1524" layer="21" curve="90"/>
<pad name="+" x="-2.54" y="0" drill="0.8128" diameter="1.778"/>
<pad name="-" x="2.54" y="0" drill="0.8128" diameter="1.778"/>
<text x="-2.921" y="2.794" size="1.27" layer="25" ratio="10">&gt;NAME</text>
<text x="4.191" y="-1.651" size="1.27" layer="27" ratio="10">&gt;VALUE</text>
<rectangle x1="0.254" y1="-1.27" x2="0.762" y2="1.27" layer="21"/>
</package>
<package name="0207/10">
<description>&lt;b&gt;RESISTOR&lt;/b&gt;&lt;p&gt;
type 0207, grid 10 mm</description>
<wire x1="5.08" y1="0" x2="4.064" y2="0" width="0.6096" layer="51"/>
<wire x1="-5.08" y1="0" x2="-4.064" y2="0" width="0.6096" layer="51"/>
<wire x1="-3.175" y1="0.889" x2="-2.921" y2="1.143" width="0.1524" layer="21" curve="-90"/>
<wire x1="-3.175" y1="-0.889" x2="-2.921" y2="-1.143" width="0.1524" layer="21" curve="90"/>
<wire x1="2.921" y1="-1.143" x2="3.175" y2="-0.889" width="0.1524" layer="21" curve="90"/>
<wire x1="2.921" y1="1.143" x2="3.175" y2="0.889" width="0.1524" layer="21" curve="-90"/>
<wire x1="-3.175" y1="-0.889" x2="-3.175" y2="0.889" width="0.1524" layer="21"/>
<wire x1="-2.921" y1="1.143" x2="-2.54" y2="1.143" width="0.1524" layer="21"/>
<wire x1="-2.413" y1="1.016" x2="-2.54" y2="1.143" width="0.1524" layer="21"/>
<wire x1="-2.921" y1="-1.143" x2="-2.54" y2="-1.143" width="0.1524" layer="21"/>
<wire x1="-2.413" y1="-1.016" x2="-2.54" y2="-1.143" width="0.1524" layer="21"/>
<wire x1="2.413" y1="1.016" x2="2.54" y2="1.143" width="0.1524" layer="21"/>
<wire x1="2.413" y1="1.016" x2="-2.413" y2="1.016" width="0.1524" layer="21"/>
<wire x1="2.413" y1="-1.016" x2="2.54" y2="-1.143" width="0.1524" layer="21"/>
<wire x1="2.413" y1="-1.016" x2="-2.413" y2="-1.016" width="0.1524" layer="21"/>
<wire x1="2.921" y1="1.143" x2="2.54" y2="1.143" width="0.1524" layer="21"/>
<wire x1="2.921" y1="-1.143" x2="2.54" y2="-1.143" width="0.1524" layer="21"/>
<wire x1="3.175" y1="-0.889" x2="3.175" y2="0.889" width="0.1524" layer="21"/>
<pad name="1" x="-5.08" y="0" drill="0.8128" diameter="1.778"/>
<pad name="2" x="5.08" y="0" drill="0.8128" diameter="1.778"/>
<text x="-3.048" y="1.524" size="1.27" layer="25" ratio="10">&gt;NAME</text>
<text x="-2.2606" y="-0.635" size="1.27" layer="27" ratio="10">&gt;VALUE</text>
<rectangle x1="3.175" y1="-0.3048" x2="4.0386" y2="0.3048" layer="21"/>
<rectangle x1="-4.0386" y1="-0.3048" x2="-3.175" y2="0.3048" layer="21"/>
</package>
<package name="0204V">
<description>&lt;b&gt;RESISTOR&lt;/b&gt;&lt;p&gt;
type 0204, grid 2.5 mm</description>
<wire x1="-1.27" y1="0" x2="1.27" y2="0" width="0.508" layer="51"/>
<wire x1="-0.127" y1="0" x2="0.127" y2="0" width="0.508" layer="21"/>
<circle x="-1.27" y="0" radius="0.889" width="0.1524" layer="51"/>
<circle x="-1.27" y="0" radius="0.635" width="0.0508" layer="51"/>
<pad name="1" x="-1.27" y="0" drill="0.8128" diameter="1.778"/>
<pad name="2" x="1.27" y="0" drill="0.8128" diameter="1.778"/>
<text x="-2.1336" y="1.1684" size="1.27" layer="25" ratio="10">&gt;NAME</text>
<text x="-2.1336" y="-2.3114" size="1.27" layer="27" ratio="10">&gt;VALUE</text>
</package>
</packages>
</library>
<library name="pot">
<description>&lt;b&gt;Potentiometers&lt;/b&gt;&lt;p&gt;
Beckman, Copal, Piher, Spectrol, Schukat&lt;p&gt;
&lt;author&gt;Created by librarian@cadsoft.de&lt;/author&gt;</description>
<packages>
<package name="3RP/1610N">
<description>&lt;b&gt;16mm Potentiometer&lt;/b&gt; one level&lt;p&gt;
Source: http://www.alphapotentiometers.net/html/16mm_pot_2.html</description>
<wire x1="-8.35" y1="-1.7" x2="8.35" y2="-1.7" width="0.2032" layer="21"/>
<wire x1="-8.35" y1="5.4" x2="8.35" y2="5.4" width="0.2032" layer="21"/>
<wire x1="-8.35" y1="-1.7" x2="-8.35" y2="5.4" width="0.2032" layer="21"/>
<pad name="1" x="-5" y="0" drill="1.2" diameter="3"/>
<pad name="2" x="0" y="0" drill="1.2" diameter="3"/>
<pad name="3" x="5" y="0" drill="1.2" diameter="3"/>
<text x="-8.255" y="5.715" size="1.27" layer="25">&gt;NAME</text>
<text x="-3.175" y="2.54" size="1.27" layer="27">&gt;VALUE</text>
<wire x1="8.35" y1="-1.7" x2="8.35" y2="5.4" width="0.2032" layer="21"/>
</package>
</packages>
</library>
<library name="transistor-neu-to92">
<description>&lt;b&gt;NPN Transistors&lt;/b&gt;&lt;p&gt;
&lt;author&gt;Created by librarian@cadsoft.de&lt;/author&gt;</description>
<packages>
<package name="TO92-EBC">
<description>&lt;b&gt;TO-92&lt;/b&gt; Pads In Line E B C from top&lt;p&gt;</description>
<wire x1="-2.095" y1="-2.921" x2="2.095" y2="-2.921" width="0.127" layer="21"/>
<wire x1="-2.413" y1="-0.1341" x2="2.413" y2="-0.1341" width="0.127" layer="21" curve="-129.583345"/>
<wire x1="1.136" y1="-1.397" x2="-1.136" y2="-1.397" width="0.127" layer="51"/>
<wire x1="-2.413" y1="-0.1341" x2="-2.664" y2="-1.397" width="0.127" layer="51" curve="27.937554"/>
<wire x1="-2.664" y1="-1.397" x2="-2.413" y2="-2.4059" width="0.127" layer="51" curve="22.478763"/>
<wire x1="-1.404" y1="-1.397" x2="-2.664" y2="-1.397" width="0.127" layer="51"/>
<wire x1="-2.4135" y1="-2.4059" x2="-2.095" y2="-2.921" width="0.127" layer="21" curve="13.038528"/>
<wire x1="-1.136" y1="-1.397" x2="-1.404" y2="-1.397" width="0.127" layer="21"/>
<wire x1="2.413" y1="-2.4059" x2="2.664" y2="-1.397" width="0.127" layer="51" curve="22.478763"/>
<wire x1="2.664" y1="-1.397" x2="2.413" y2="-0.1341" width="0.127" layer="51" curve="27.937554"/>
<wire x1="2.664" y1="-1.397" x2="1.404" y2="-1.397" width="0.127" layer="51"/>
<wire x1="1.404" y1="-1.397" x2="1.136" y2="-1.397" width="0.127" layer="21"/>
<wire x1="2.095" y1="-2.921" x2="2.4247" y2="-2.3818" width="0.127" layer="21" curve="13.609443"/>
<pad name="C" x="2.54" y="-1.27" drill="0.8128" shape="long" rot="R90"/>
<pad name="E" x="-2.54" y="-1.27" drill="0.8128" shape="long" rot="R90"/>
<pad name="B" x="0" y="-1.27" drill="0.8128" shape="long" rot="R90"/>
<text x="-2.54" y="1.778" size="1.27" layer="25" ratio="10">&gt;NAME</text>
<text x="-2.54" y="-4.572" size="1.27" layer="27" ratio="10">&gt;VALUE</text>
</package>
</packages>
</library>
<library name="transistor">
<description>&lt;b&gt;Transistors&lt;/b&gt;&lt;p&gt;
&lt;author&gt;Created by librarian@cadsoft.de&lt;/author&gt;</description>
<packages>
<package name="TO5">
<description>&lt;b&gt;TO 5&lt;/b&gt;</description>
<wire x1="-4.0386" y1="-3.5306" x2="-3.5052" y2="-2.9972" width="0.127" layer="21"/>
<wire x1="-2.9718" y1="-3.5306" x2="-3.5052" y2="-4.064" width="0.127" layer="21"/>
<wire x1="-3.5052" y1="-4.064" x2="-4.0386" y2="-3.5306" width="0.127" layer="21"/>
<circle x="0" y="0" radius="4.572" width="0.127" layer="21"/>
<circle x="0" y="0" radius="3.8608" width="0.0508" layer="21"/>
<pad name="1" x="0" y="-2.54" drill="0.8" diameter="1.9304"/>
<pad name="2" x="2.54" y="0" drill="0.8" diameter="1.9304"/>
<pad name="3" x="0" y="2.54" drill="0.8" diameter="1.9304"/>
<text x="-2.54" y="5.08" size="1.27" layer="25" ratio="10">&gt;NAME</text>
<text x="-3.175" y="-0.635" size="1.27" layer="27" ratio="10">&gt;VALUE</text>
</package>
</packages>
</library>
<library name="_wYP">
<packages>
<package name="_WYPROWADZENIE">
<smd name="P$1" x="-2.54" y="0" dx="6.4516" dy="3.2512" layer="1" rot="R90"/>
<smd name="P$2" x="2.54" y="0" dx="6.4516" dy="3.2512" layer="1" rot="R90"/>
</package>
</packages>
</library>
</libraries>
<attributes>
</attributes>
<variantdefs>
</variantdefs>
<classes>
<class number="0" name="default" width="0" drill="0">
</class>
</classes>
<designrules name="default">
<description language="de">&lt;b&gt;EAGLE Design Rules&lt;/b&gt;
&lt;p&gt;
Die Standard-Design-Rules sind so gewählt, dass sie für 
die meisten Anwendungen passen. Sollte ihre Platine 
besondere Anforderungen haben, treffen Sie die erforderlichen
Einstellungen hier und speichern die Design Rules unter 
einem neuen Namen ab.</description>
<description language="en">&lt;b&gt;EAGLE Design Rules&lt;/b&gt;
&lt;p&gt;
The default Design Rules have been set to cover
a wide range of applications. Your particular design
may have different requirements, so please make the
necessary adjustments and save your customized
design rules under a new name.</description>
<param name="layerSetup" value="(1*16)"/>
<param name="mtCopper" value="0.035mm 0.035mm 0.035mm 0.035mm 0.035mm 0.035mm 0.035mm 0.035mm 0.035mm 0.035mm 0.035mm 0.035mm 0.035mm 0.035mm 0.035mm 0.035mm"/>
<param name="mtIsolate" value="1.5mm 0.15mm 0.2mm 0.15mm 0.2mm 0.15mm 0.2mm 0.15mm 0.2mm 0.15mm 0.2mm 0.15mm 0.2mm 0.15mm 0.2mm"/>
<param name="mdWireWire" value="8mil"/>
<param name="mdWirePad" value="8mil"/>
<param name="mdWireVia" value="8mil"/>
<param name="mdPadPad" value="8mil"/>
<param name="mdPadVia" value="8mil"/>
<param name="mdViaVia" value="8mil"/>
<param name="mdSmdPad" value="8mil"/>
<param name="mdSmdVia" value="8mil"/>
<param name="mdSmdSmd" value="8mil"/>
<param name="mdViaViaSameLayer" value="8mil"/>
<param name="mnLayersViaInSmd" value="2"/>
<param name="mdCopperDimension" value="40mil"/>
<param name="mdDrill" value="8mil"/>
<param name="mdSmdStop" value="0mil"/>
<param name="msWidth" value="10mil"/>
<param name="msDrill" value="24mil"/>
<param name="msMicroVia" value="9.99mm"/>
<param name="msBlindViaRatio" value="0.5"/>
<param name="rvPadTop" value="0.25"/>
<param name="rvPadInner" value="0.25"/>
<param name="rvPadBottom" value="0.25"/>
<param name="rvViaOuter" value="0.25"/>
<param name="rvViaInner" value="0.25"/>
<param name="rvMicroViaOuter" value="0.25"/>
<param name="rvMicroViaInner" value="0.25"/>
<param name="rlMinPadTop" value="10mil"/>
<param name="rlMaxPadTop" value="20mil"/>
<param name="rlMinPadInner" value="10mil"/>
<param name="rlMaxPadInner" value="20mil"/>
<param name="rlMinPadBottom" value="10mil"/>
<param name="rlMaxPadBottom" value="20mil"/>
<param name="rlMinViaOuter" value="8mil"/>
<param name="rlMaxViaOuter" value="20mil"/>
<param name="rlMinViaInner" value="8mil"/>
<param name="rlMaxViaInner" value="20mil"/>
<param name="rlMinMicroViaOuter" value="4mil"/>
<param name="rlMaxMicroViaOuter" value="20mil"/>
<param name="rlMinMicroViaInner" value="4mil"/>
<param name="rlMaxMicroViaInner" value="20mil"/>
<param name="psTop" value="-1"/>
<param name="psBottom" value="-1"/>
<param name="psFirst" value="-1"/>
<param name="psElongationLong" value="100"/>
<param name="psElongationOffset" value="100"/>
<param name="mvStopFrame" value="1"/>
<param name="mvCreamFrame" value="0"/>
<param name="mlMinStopFrame" value="4mil"/>
<param name="mlMaxStopFrame" value="4mil"/>
<param name="mlMinCreamFrame" value="0mil"/>
<param name="mlMaxCreamFrame" value="0mil"/>
<param name="mlViaStopLimit" value="0mil"/>
<param name="srRoundness" value="0"/>
<param name="srMinRoundness" value="0mil"/>
<param name="srMaxRoundness" value="0mil"/>
<param name="slThermalIsolate" value="10mil"/>
<param name="slThermalsForVias" value="0"/>
<param name="dpMaxLengthDifference" value="10mm"/>
<param name="dpGapFactor" value="2.5"/>
<param name="checkGrid" value="0"/>
<param name="checkAngle" value="0"/>
<param name="checkFont" value="1"/>
<param name="checkRestrict" value="1"/>
<param name="useDiameter" value="13"/>
<param name="maxErrors" value="50"/>
</designrules>
<autorouter>
<pass name="Default">
<param name="RoutingGrid" value="50mil"/>
<param name="AutoGrid" value="1"/>
<param name="Efforts" value="0"/>
<param name="TopRouterVariant" value="1"/>
<param name="tpViaShape" value="round"/>
<param name="PrefDir.1" value="a"/>
<param name="PrefDir.2" value="0"/>
<param name="PrefDir.3" value="0"/>
<param name="PrefDir.4" value="0"/>
<param name="PrefDir.5" value="0"/>
<param name="PrefDir.6" value="0"/>
<param name="PrefDir.7" value="0"/>
<param name="PrefDir.8" value="0"/>
<param name="PrefDir.9" value="0"/>
<param name="PrefDir.10" value="0"/>
<param name="PrefDir.11" value="0"/>
<param name="PrefDir.12" value="0"/>
<param name="PrefDir.13" value="0"/>
<param name="PrefDir.14" value="0"/>
<param name="PrefDir.15" value="0"/>
<param name="PrefDir.16" value="a"/>
<param name="cfVia" value="8"/>
<param name="cfNonPref" value="5"/>
<param name="cfChangeDir" value="2"/>
<param name="cfOrthStep" value="2"/>
<param name="cfDiagStep" value="3"/>
<param name="cfExtdStep" value="0"/>
<param name="cfBonusStep" value="1"/>
<param name="cfMalusStep" value="1"/>
<param name="cfPadImpact" value="4"/>
<param name="cfSmdImpact" value="4"/>
<param name="cfBusImpact" value="0"/>
<param name="cfHugging" value="3"/>
<param name="cfAvoid" value="4"/>
<param name="cfPolygon" value="10"/>
<param name="cfBase.1" value="0"/>
<param name="cfBase.2" value="1"/>
<param name="cfBase.3" value="1"/>
<param name="cfBase.4" value="1"/>
<param name="cfBase.5" value="1"/>
<param name="cfBase.6" value="1"/>
<param name="cfBase.7" value="1"/>
<param name="cfBase.8" value="1"/>
<param name="cfBase.9" value="1"/>
<param name="cfBase.10" value="1"/>
<param name="cfBase.11" value="1"/>
<param name="cfBase.12" value="1"/>
<param name="cfBase.13" value="1"/>
<param name="cfBase.14" value="1"/>
<param name="cfBase.15" value="1"/>
<param name="cfBase.16" value="0"/>
<param name="mnVias" value="20"/>
<param name="mnSegments" value="9999"/>
<param name="mnExtdSteps" value="9999"/>
<param name="mnRipupLevel" value="10"/>
<param name="mnRipupSteps" value="100"/>
<param name="mnRipupTotal" value="100"/>
</pass>
<pass name="Follow-me" refer="Default" active="yes">
</pass>
<pass name="Busses" refer="Default" active="yes">
<param name="cfNonPref" value="4"/>
<param name="cfBusImpact" value="4"/>
<param name="cfHugging" value="0"/>
<param name="mnVias" value="0"/>
</pass>
<pass name="Route" refer="Default" active="yes">
</pass>
<pass name="Optimize1" refer="Default" active="yes">
<param name="cfVia" value="99"/>
<param name="cfExtdStep" value="10"/>
<param name="cfHugging" value="1"/>
<param name="mnExtdSteps" value="1"/>
<param name="mnRipupLevel" value="0"/>
</pass>
<pass name="Optimize2" refer="Optimize1" active="yes">
<param name="cfNonPref" value="0"/>
<param name="cfChangeDir" value="6"/>
<param name="cfExtdStep" value="0"/>
<param name="cfBonusStep" value="2"/>
<param name="cfMalusStep" value="2"/>
<param name="cfPadImpact" value="2"/>
<param name="cfSmdImpact" value="2"/>
<param name="cfHugging" value="0"/>
</pass>
<pass name="Optimize3" refer="Optimize2" active="yes">
<param name="cfChangeDir" value="8"/>
<param name="cfPadImpact" value="0"/>
<param name="cfSmdImpact" value="0"/>
</pass>
<pass name="Optimize4" refer="Optimize3" active="yes">
<param name="cfChangeDir" value="25"/>
</pass>
</autorouter>
<elements>
<element name="P1" library="pot" package="3RP/1610N" value="5K" x="92.999" y="16.002" smashed="yes" rot="R180">
<attribute name="NAME" x="84.896" y="11.005" size="1.27" layer="25"/>
</element>
<element name="P2" library="pot" package="3RP/1610N" value="10K" x="30.001" y="16.0005" smashed="yes" rot="R180">
<attribute name="NAME" x="23.813" y="12.2475" size="1.27" layer="25" rot="R180"/>
</element>
<element name="P5" library="pot" package="3RP/1610N" value="5K" x="8.9955" y="15.998" smashed="yes" rot="R180">
<attribute name="NAME" x="2.8265" y="12.2555" size="1.27" layer="25" rot="R180"/>
</element>
<element name="P3" library="pot" package="3RP/1610N" value="10K" x="50.9995" y="15.998" smashed="yes" rot="R180">
<attribute name="NAME" x="44.8175" y="12.289" size="1.27" layer="25" rot="R180"/>
</element>
<element name="P4" library="pot" package="3RP/1610N" value="10K" x="72" y="16" smashed="yes" rot="R180">
<attribute name="NAME" x="65.831" y="12.2855" size="1.27" layer="25" rot="R180"/>
</element>
<element name="T3" library="transistor-neu-to92" package="TO92-EBC" value="2N3904" x="59.85" y="5.79" smashed="yes" rot="R90">
<attribute name="NAME" x="64.272" y="4.85" size="1.27" layer="25" ratio="10" rot="R90"/>
</element>
<element name="T1" library="transistor" package="TO5" value="Germanium" x="46" y="5.5" smashed="yes">
<attribute name="NAME" x="49.46" y="0.58" size="1.27" layer="25" ratio="10"/>
</element>
<element name="T2" library="transistor" package="TO5" value="Germanium" x="25" y="5.5" smashed="yes">
<attribute name="NAME" x="28.46" y="0.58" size="1.27" layer="25" ratio="10"/>
</element>
<element name="C1" library="resistor" package="B45181B" value="10uF" x="69" y="3.5" smashed="yes">
<attribute name="NAME" x="73.079" y="1.294" size="1.27" layer="25" ratio="10"/>
</element>
<element name="C2" library="resistor" package="B45181B" value="10uF" x="80" y="7" smashed="yes" rot="R180">
<attribute name="NAME" x="82.921" y="4.206" size="1.27" layer="25" ratio="10" rot="R180"/>
</element>
<element name="C3" library="resistor" package="B45181B" value="10uF" x="17" y="5" smashed="yes" rot="R270">
<attribute name="NAME" x="17.971" y="10.256" size="1.27" layer="25" ratio="10" rot="R180"/>
</element>
<element name="C4" library="resistor" package="C050-030X075" value="100nF" x="53" y="5.5" smashed="yes" rot="R90">
<attribute name="NAME" x="55.995" y="7.044" size="1.27" layer="25" ratio="10" rot="R90"/>
</element>
<element name="U$1" library="_wYP" package="_WYPROWADZENIE" value="_WYPROWADZENIE" x="89.72" y="5.348" rot="MR180"/>
<element name="U$2" library="_wYP" package="_WYPROWADZENIE" value="_WYPROWADZENIE" x="96.7025" y="5.3385" rot="MR180"/>
<element name="U$3" library="_wYP" package="_WYPROWADZENIE" value="_WYPROWADZENIE" x="6" y="5.58" rot="MR180"/>
<element name="R2" library="resistor" package="0207/10" value="10k" x="69" y="8" smashed="yes">
<attribute name="NAME" x="67.952" y="7.524" size="1.27" layer="25" ratio="10"/>
</element>
<element name="R4" library="resistor" package="0207/10" value="470R" x="35.5" y="8" smashed="yes">
<attribute name="NAME" x="34.452" y="7.524" size="1.27" layer="25" ratio="10"/>
</element>
<element name="R1" library="resistor" package="0204V" value="220k" x="57" y="4.5" smashed="yes" rot="R90">
<attribute name="NAME" x="55.8664" y="0.6684" size="1.27" layer="25" ratio="10"/>
</element>
<element name="R3" library="resistor" package="0204V" value="47k" x="35" y="4" smashed="yes" rot="R180">
<attribute name="NAME" x="37.1336" y="2.8316" size="1.27" layer="25" ratio="10" rot="R180"/>
</element>
<element name="R6" library="resistor" package="0204V" value="220k" x="12" y="3" smashed="yes" rot="R90">
<attribute name="NAME" x="10.8316" y="0.8664" size="1.27" layer="25" ratio="10" rot="R90"/>
</element>
<element name="R5" library="resistor" package="0204V" value="5k1" x="12" y="8" smashed="yes" rot="R270">
<attribute name="NAME" x="9.6684" y="10.1336" size="1.27" layer="25" ratio="10" rot="R270"/>
</element>
</elements>
<signals>
<signal name="N$1">
<contactref element="P1" pad="3"/>
<contactref element="P1" pad="2"/>
<contactref element="U$2" pad="P$2"/>
<wire x1="87.999" y1="16.002" x2="92.999" y2="16.002" width="0.8128" layer="16"/>
<wire x1="99.2425" y1="5.3385" x2="99.2425" y2="9.7585" width="0.8128" layer="16"/>
<wire x1="99.2425" y1="9.7585" x2="92.999" y2="16.002" width="0.8128" layer="16"/>
</signal>
<signal name="N$4">
<contactref element="T3" pad="B"/>
<contactref element="C1" pad="+"/>
<wire x1="64.17" y1="5.79" x2="66.46" y2="3.5" width="0.8128" layer="16"/>
<wire x1="61.12" y1="5.79" x2="64.17" y2="5.79" width="0.8128" layer="16"/>
<contactref element="R1" pad="1"/>
<wire x1="61.12" y1="5.79" x2="59.56" y2="5.79" width="0.8128" layer="16"/>
<wire x1="59.56" y1="5.79" x2="57" y2="3.23" width="0.8128" layer="16"/>
</signal>
<signal name="N$5">
<contactref element="T3" pad="C"/>
<contactref element="C4" pad="1"/>
<contactref element="R2" pad="1"/>
<wire x1="61.12" y1="8.33" x2="63.59" y2="8.33" width="0.8128" layer="16"/>
<wire x1="63.59" y1="8.33" x2="63.92" y2="8" width="0.8128" layer="16"/>
<contactref element="R1" pad="2"/>
<wire x1="57" y1="5.77" x2="55.81" y2="5.77" width="0.8128" layer="16"/>
<wire x1="55.81" y1="5.77" x2="53" y2="2.96" width="0.8128" layer="16"/>
<wire x1="61.12" y1="8.33" x2="59.56" y2="8.33" width="0.8128" layer="16"/>
<wire x1="59.56" y1="8.33" x2="57" y2="5.77" width="0.8128" layer="16"/>
</signal>
<signal name="N$6">
<contactref element="T1" pad="2"/>
<contactref element="C4" pad="2"/>
<wire x1="48.54" y1="5.5" x2="48.54" y2="5.54" width="0.8128" layer="16"/>
<wire x1="48.54" y1="5.54" x2="51" y2="8" width="0.8128" layer="16"/>
<wire x1="51" y1="8" x2="52.96" y2="8" width="0.8128" layer="16"/>
<wire x1="52.96" y1="8" x2="53" y2="8.04" width="0.8128" layer="16"/>
<wire x1="44.5" y1="5" x2="48.04" y2="5" width="0.6096" layer="16"/>
<wire x1="48.04" y1="5" x2="48.54" y2="5.5" width="0.6096" layer="16"/>
<contactref element="R3" pad="1"/>
<wire x1="36.27" y1="4" x2="43.5" y2="4" width="0.8128" layer="16"/>
<wire x1="43.5" y1="4" x2="44.5" y2="5" width="0.6096" layer="16"/>
</signal>
<signal name="VCC">
<contactref element="P4" pad="3"/>
<contactref element="T1" pad="1"/>
<contactref element="C2" pad="+"/>
<contactref element="R2" pad="2"/>
<wire x1="67" y1="16" x2="74" y2="9" width="0.8128" layer="16"/>
<wire x1="74" y1="9" x2="74" y2="8.08" width="0.8128" layer="16"/>
<wire x1="74" y1="8.08" x2="74.08" y2="8" width="0.8128" layer="16"/>
<wire x1="74.08" y1="8" x2="74.08" y2="6.92" width="0.8128" layer="16"/>
<wire x1="74.08" y1="6.92" x2="76" y2="5" width="0.8128" layer="16"/>
<wire x1="76" y1="5" x2="82" y2="5" width="0.8128" layer="16"/>
<wire x1="82" y1="5" x2="82.5" y2="5.5" width="0.8128" layer="16"/>
<wire x1="82.5" y1="5.5" x2="82.5" y2="6.96" width="0.8128" layer="16"/>
<wire x1="82.5" y1="6.96" x2="82.54" y2="7" width="0.8128" layer="16"/>
<wire x1="67" y1="16" x2="62" y2="16" width="0.8128" layer="16"/>
<wire x1="62" y1="16" x2="61" y2="15" width="0.8128" layer="16"/>
<wire x1="61" y1="15" x2="61" y2="12" width="0.8128" layer="16"/>
<wire x1="61" y1="12" x2="60" y2="11" width="0.8128" layer="16"/>
<contactref element="P1" pad="1"/>
<wire x1="82.54" y1="7" x2="82.54" y2="17.54" width="0.8128" layer="16"/>
<wire x1="82.54" y1="17.54" x2="84" y2="19" width="0.8128" layer="16"/>
<wire x1="84" y1="19" x2="95.001" y2="19" width="0.8128" layer="16"/>
<wire x1="95.001" y1="19" x2="97.999" y2="16.002" width="0.8128" layer="16"/>
<contactref element="P3" pad="3"/>
<wire x1="50.9975" y1="11" x2="45.9995" y2="15.998" width="0.8128" layer="16"/>
<wire x1="60" y1="11" x2="55.5" y2="11" width="0.8128" layer="16"/>
<wire x1="55.5" y1="11" x2="50.9975" y2="11" width="0.8128" layer="16"/>
<wire x1="46" y1="2.96" x2="50.46" y2="2.96" width="0.8128" layer="16"/>
<wire x1="50.46" y1="2.96" x2="55.5" y2="8" width="0.8128" layer="16"/>
<wire x1="55.5" y1="8" x2="55.5" y2="11" width="0.8128" layer="16"/>
</signal>
<signal name="GND">
<contactref element="P5" pad="1"/>
<contactref element="P2" pad="2"/>
<contactref element="P2" pad="1"/>
<contactref element="T3" pad="E"/>
<polygon width="0.4064" layer="16" isolate="0.4064">
<vertex x="-1.81" y="21.83"/>
<vertex x="103.95" y="21.83"/>
<vertex x="103.825" y="-1.759"/>
<vertex x="-1.807" y="-1.8355"/>
</polygon>
<contactref element="U$1" pad="P$2"/>
<contactref element="U$3" pad="P$1"/>
<contactref element="U$2" pad="P$1"/>
<contactref element="R6" pad="1"/>
</signal>
<signal name="N$7">
<contactref element="T1" pad="3"/>
<contactref element="T2" pad="2"/>
<contactref element="R4" pad="2"/>
<wire x1="46" y1="8.04" x2="43.04" y2="8.04" width="0.8128" layer="16"/>
<wire x1="43.04" y1="8.04" x2="40.58" y2="8" width="0.8128" layer="16"/>
<wire x1="27.54" y1="5.5" x2="31.5" y2="5.5" width="0.8128" layer="16"/>
<wire x1="31.5" y1="5.5" x2="34" y2="8" width="0.8128" layer="16"/>
<wire x1="34" y1="8" x2="40.58" y2="8" width="0.8128" layer="16"/>
</signal>
<signal name="N$8">
<contactref element="P2" pad="3"/>
<contactref element="R4" pad="1"/>
<wire x1="30.42" y1="8" x2="29.92" y2="9.08" width="0.8128" layer="16"/>
<wire x1="29.92" y1="9.08" x2="25" y2="14" width="0.8128" layer="16"/>
<wire x1="25" y1="14" x2="25" y2="15.9995" width="0.8128" layer="16"/>
<wire x1="25" y1="15.9995" x2="25.001" y2="16.0005" width="0.8128" layer="16"/>
</signal>
<signal name="N$2">
<contactref element="T2" pad="3"/>
<wire x1="13.73" y1="5" x2="21.96" y2="5" width="0.8128" layer="16"/>
<wire x1="21.96" y1="5" x2="25" y2="8.04" width="0.8128" layer="16"/>
<contactref element="R5" pad="2"/>
<wire x1="13.73" y1="5" x2="12" y2="6.73" width="0.8128" layer="16"/>
</signal>
<signal name="N$3">
<contactref element="P5" pad="3"/>
<contactref element="R5" pad="1"/>
<wire x1="3.9955" y1="15.998" x2="3.9955" y2="14.0045" width="0.8128" layer="16"/>
<wire x1="3.9955" y1="14.0045" x2="7" y2="11" width="0.8128" layer="16"/>
<wire x1="7" y1="11" x2="10.27" y2="11" width="0.8128" layer="16"/>
<wire x1="10.27" y1="11" x2="12" y2="9.27" width="0.8128" layer="16"/>
</signal>
<signal name="N$10">
<contactref element="P5" pad="2"/>
<contactref element="C3" pad="+"/>
<wire x1="17" y1="7.54" x2="17" y2="7.9935" width="0.8128" layer="16"/>
<wire x1="17" y1="7.9935" x2="8.9955" y2="15.998" width="0.8128" layer="16"/>
</signal>
<signal name="N$12">
<contactref element="C3" pad="-"/>
<contactref element="U$3" pad="P$2"/>
<wire x1="7.77" y1="4.35" x2="8.54" y2="5.58" width="0.8128" layer="16"/>
<wire x1="9.85" y1="4.27" x2="8.54" y2="5.58" width="0.8128" layer="16"/>
<contactref element="R6" pad="2"/>
<wire x1="17" y1="2.46" x2="14.54" y2="2.46" width="0.8128" layer="16"/>
<wire x1="14.54" y1="2.46" x2="13" y2="4" width="0.8128" layer="16"/>
<wire x1="13" y1="4" x2="12.27" y2="4" width="0.8128" layer="16"/>
<wire x1="12.27" y1="4" x2="12" y2="4.27" width="0.8128" layer="16"/>
<wire x1="9.85" y1="4.27" x2="12" y2="4.27" width="0.8128" layer="16"/>
</signal>
<signal name="N$14">
<contactref element="P3" pad="1"/>
<contactref element="P3" pad="2"/>
<contactref element="T2" pad="1"/>
<wire x1="50.9995" y1="15.998" x2="55.9995" y2="15.998" width="0.8128" layer="16"/>
<wire x1="55.9995" y1="15.998" x2="56.998" y2="15.998" width="0.8128" layer="16"/>
<wire x1="56.998" y1="15.998" x2="60" y2="19" width="0.8128" layer="16"/>
<contactref element="P4" pad="1"/>
<wire x1="60" y1="19" x2="76" y2="19" width="0.8128" layer="16"/>
<wire x1="76" y1="19" x2="77" y2="18" width="0.8128" layer="16"/>
<wire x1="77" y1="18" x2="77" y2="16" width="0.8128" layer="16"/>
<wire x1="35" y1="6" x2="43" y2="6" width="0.8128" layer="16"/>
<wire x1="43" y1="6" x2="46.5" y2="6" width="0.6096" layer="16"/>
<wire x1="46.5" y1="6" x2="48.5" y2="8" width="0.6096" layer="16"/>
<wire x1="48.5" y1="8" x2="48.5" y2="9.5" width="0.8128" layer="16"/>
<wire x1="48.5" y1="9.5" x2="43" y2="15" width="0.8128" layer="16"/>
<wire x1="43" y1="15" x2="43" y2="18" width="0.8128" layer="16"/>
<wire x1="43" y1="18" x2="44" y2="19" width="0.8128" layer="16"/>
<wire x1="44" y1="19" x2="50" y2="19" width="0.8128" layer="16"/>
<wire x1="50" y1="19" x2="51" y2="18" width="0.8128" layer="16"/>
<wire x1="51" y1="18" x2="51" y2="15.9985" width="0.8128" layer="16"/>
<wire x1="51" y1="15.9985" x2="50.9995" y2="15.998" width="0.8128" layer="16"/>
<contactref element="R3" pad="2"/>
<wire x1="33.73" y1="4" x2="33.73" y2="4.73" width="0.8128" layer="16"/>
<wire x1="33.73" y1="4.73" x2="35" y2="6" width="0.8128" layer="16"/>
<wire x1="25" y1="2.96" x2="28.96" y2="2.96" width="0.8128" layer="16"/>
<wire x1="28.96" y1="2.96" x2="30" y2="4" width="0.8128" layer="16"/>
<wire x1="30" y1="4" x2="33.73" y2="4" width="0.8128" layer="16"/>
</signal>
<signal name="N$17">
<contactref element="C2" pad="-"/>
<contactref element="P4" pad="2"/>
<wire x1="72" y1="16" x2="72" y2="15" width="0.8128" layer="16"/>
<wire x1="77.46" y1="7" x2="77.46" y2="9.54" width="0.8128" layer="16"/>
<wire x1="77.46" y1="9.54" x2="72" y2="15" width="0.8128" layer="16"/>
</signal>
<signal name="N$18">
<contactref element="C1" pad="-"/>
<contactref element="U$1" pad="P$1"/>
<wire x1="87.18" y1="5.348" x2="86.348" y2="3.348" width="0.8128" layer="16"/>
<wire x1="86.348" y1="3.348" x2="86.5" y2="3.5" width="0.8128" layer="16"/>
<wire x1="86.5" y1="3.5" x2="71.54" y2="3.5" width="0.8128" layer="16"/>
</signal>
</signals>
</board>
</drawing>
</eagle>
